Class 3: Reshaping data into a tidy format
…
Introduce tidyr for “tidying” rectangular data

Joining related tables with dplyr

Strategies for missing data

“Data Scientists spend up to 80% of the time on data cleaning and 20 percent of their time on actual data analysis.”
– Exploratory Data Mining and Data Cleaning. Dasu and Johnson

Wide versus long data formats

Data can be represented in multiple formats. Today we will discuss two common tabular formats for organizing data for analysis in R. Consider the following dataset, which contains GDP estimates per person for countries throughout history. This representation of the data is commonly referred to as ‘wide’ data format, which is a matrix-like format containing samples or features as rows or columns, with values associated with each sample and feature.

# A tibble: 195 × 252
   country `1799` `1800` `1801` `1802` `1803` `1804` `1805` `1806` `1807` `1808`
   <chr>    <dbl>  <dbl>  <dbl>  <dbl>  <dbl>  <dbl>  <dbl>  <dbl>  <dbl>  <dbl>
 1 Afghan…    683    683    683    683    683    683    683    683    683    683
 2 Angola     700    702    705    709    711    714    718    721    725    727
 3 Albania    755    755    755    755    755    756    756    756    756    756
 4 Andorra   1360   1360   1360   1360   1370   1370   1370   1370   1380   1380
 5 United…   1130   1130   1140   1140   1150   1150   1160   1160   1160   1170
 6 Argent…   1730   1730   1740   1740   1750   1760   1760   1770   1770   1780
 7 Armenia    582    582    582    582    582    582    582    582    582    582
 8 Antigu…    857    857    857    857    857    857    857    858    858    858
 9 Austra…    925    930    936    941    947    952    956    962    968    973
10 Austria   2090   2100   2110   2120   2130   2130   2140   2150   2160   2170
# … with 185 more rows, and 241 more variables: `1809` <dbl>, `1810` <dbl>,
#   `1811` <dbl>, `1812` <dbl>, `1813` <dbl>, `1814` <dbl>, `1815` <dbl>,
#   `1816` <dbl>, `1817` <dbl>, `1818` <dbl>, `1819` <dbl>, `1820` <dbl>,
#   `1821` <dbl>, `1822` <dbl>, `1823` <dbl>, `1824` <dbl>, `1825` <dbl>,
#   `1826` <dbl>, `1827` <dbl>, `1828` <dbl>, `1829` <dbl>, `1830` <dbl>,
#   `1831` <dbl>, `1832` <dbl>, `1833` <dbl>, `1834` <dbl>, `1835` <dbl>,
#   `1836` <dbl>, `1837` <dbl>, `1838` <dbl>, `1839` <dbl>, `1840` <dbl>, …

The wide matrix-like format is very useful and a common format used for statistics and machine learning. Matrices can take advantage of optimized numerical routines and are the data representation of mathematical matrices. We will work with matrices latter in class, particularly their use to generate heatmaps.

Representing data in a matrix has a few practical implications:

There is only 1 type of data stored in matrix (e.g. each cell is the same unit of observation, the GDP per person). To store more values you need multiple matrices.

The format is not easily manipulated with dplyr/tidyverse.

We will instead start by with working with data in a long (also known as tidy) format.

The same data could be instead formatted in a long (aka “tidy”) format.

# A tibble: 48,945 × 3
   country     year    gdp
   <chr>       <chr> <dbl>
 1 Afghanistan 1799    683
 2 Afghanistan 1800    683
 3 Afghanistan 1801    683
 4 Afghanistan 1802    683
 5 Afghanistan 1803    683
 6 Afghanistan 1804    683
 7 Afghanistan 1805    683
 8 Afghanistan 1806    683
 9 Afghanistan 1807    683
10 Afghanistan 1808    683
# … with 48,935 more rows
…
Exercises

Tidy the GDP data.

Which country had the highest GDP per person in 1985?

What was the mean worldwide GDP in the year 1999?

Which country had the highest average GDP per person in the 19th century?

library(readr)
read_csv("data/income_per_person.csv")

# A tibble: 195 × 252
   country `1799` `1800` `1801` `1802` `1803` `1804` `1805` `1806` `1807` `1808`
   <chr>    <dbl>  <dbl>  <dbl>  <dbl>  <dbl>  <dbl>  <dbl>  <dbl>  <dbl>  <dbl>
 1 Afghan…    683    683    683    683    683    683    683    683    683    683
 2 Angola     700    702    705    709    711    714    718    721    725    727
 3 Albania    755    755    755    755    755    756    756    756    756    756
 4 Andorra   1360   1360   1360   1360   1370   1370   1370   1370   1380   1380
 5 United…   1130   1130   1140   1140   1150   1150   1160   1160   1160   1170
 6 Argent…   1730   1730   1740   1740   1750   1760   1760   1770   1770   1780
 7 Armenia    582    582    582    582    582    582    582    582    582    582
 8 Antigu…    857    857    857    857    857    857    857    858    858    858
 9 Austra…    925    930    936    941    947    952    956    962    968    973
10 Austria   2090   2100   2110   2120   2130   2130   2140   2150   2160   2170
# … with 185 more rows, and 241 more variables: `1809` <dbl>, `1810` <dbl>,
#   `1811` <dbl>, `1812` <dbl>, `1813` <dbl>, `1814` <dbl>, `1815` <dbl>,
#   `1816` <dbl>, `1817` <dbl>, `1818` <dbl>, `1819` <dbl>, `1820` <dbl>,
#   `1821` <dbl>, `1822` <dbl>, `1823` <dbl>, `1824` <dbl>, `1825` <dbl>,
#   `1826` <dbl>, `1827` <dbl>, `1828` <dbl>, `1829` <dbl>, `1830` <dbl>,
#   `1831` <dbl>, `1832` <dbl>, `1833` <dbl>, `1834` <dbl>, `1835` <dbl>,
#   `1836` <dbl>, `1837` <dbl>, `1838` <dbl>, `1839` <dbl>, `1840` <dbl>, …
…
Zeroes, NA, NaN and NULL

Don’t use use zeroes to represent missing data. 0 is valid observed value.

NA (Not Available) is most often use to represent missing data.

NaN (Not a Number) is the result of an undefined operation, e.g. 0 / 0.

NULL means “undefined” and is only used in a programming context (i.e., a function that returns NULL). You can’t put NULL values in a data frame.

Let’s examine a data frame with some missing data.

starwars

# A tibble: 87 × 14
   name        height  mass hair_…¹ skin_…² eye_c…³ birth…⁴ sex   gender homew…⁵
   <chr>        <int> <dbl> <chr>   <chr>   <chr>     <dbl> <chr> <chr>  <chr>  
 1 Luke Skywa…    172    77 blond   fair    blue       19   male  mascu… Tatooi…
 2 C-3PO          167    75 <NA>    gold    yellow    112   none  mascu… Tatooi…
 3 R2-D2           96    32 <NA>    white,… red        33   none  mascu… Naboo  
 4 Darth Vader    202   136 none    white   yellow     41.9 male  mascu… Tatooi…
 5 Leia Organa    150    49 brown   light   brown      19   fema… femin… Aldera…
 6 Owen Lars      178   120 brown,… light   blue       52   male  mascu… Tatooi…
 7 Beru White…    165    75 brown   light   blue       47   fema… femin… Tatooi…
 8 R5-D4           97    32 <NA>    white,… red        NA   none  mascu… Tatooi…
 9 Biggs Dark…    183    84 black   light   brown      24   male  mascu… Tatooi…
10 Obi-Wan Ke…    182    77 auburn… fair    blue-g…    57   male  mascu… Stewjon
# … with 77 more rows, 4 more variables: species <chr>, films <list>,
#   vehicles <list>, starships <list>, and abbreviated variable names
#   ¹​hair_color, ²​skin_color, ³​eye_color, ⁴​birth_year, ⁵​homeworld
…
