Class 3: Data wrangling with the tidyverse
…
head(mtcars )

                   mpg cyl disp  hp drat    wt  qsec vs am gear carb
Mazda RX4         21.0   6  160 110 3.90 2.620 16.46  0  1    4    4
Mazda RX4 Wag     21.0   6  160 110 3.90 2.875 17.02  0  1    4    4
Datsun 710        22.8   4  108  93 3.85 2.320 18.61  1  1    4    1
Hornet 4 Drive    21.4   6  258 110 3.08 3.215 19.44  1  0    3    1
Hornet Sportabout 18.7   8  360 175 3.15 3.440 17.02  0  0    3    2
Valiant           18.1   6  225 105 2.76 3.460 20.22  1  0    3    1

mtcars_tbl <- rownames_to_column(mtcars, "vehicle")
mtcars_tbl <- as_tibble(mtcars_tbl)
mtcars_tbl

# A tibble: 32 × 12
   vehicle       mpg   cyl  disp    hp  drat    wt  qsec    vs    am  gear  carb
   <chr>       <dbl> <dbl> <dbl> <dbl> <dbl> <dbl> <dbl> <dbl> <dbl> <dbl> <dbl>
 1 Mazda RX4    21       6  160    110  3.9   2.62  16.5     0     1     4     4
 2 Mazda RX4 …  21       6  160    110  3.9   2.88  17.0     0     1     4     4
 3 Datsun 710   22.8     4  108     93  3.85  2.32  18.6     1     1     4     1
 4 Hornet 4 D…  21.4     6  258    110  3.08  3.22  19.4     1     0     3     1
 5 Hornet Spo…  18.7     8  360    175  3.15  3.44  17.0     0     0     3     2
 6 Valiant      18.1     6  225    105  2.76  3.46  20.2     1     0     3     1
 7 Duster 360   14.3     8  360    245  3.21  3.57  15.8     0     0     3     4
 8 Merc 240D    24.4     4  147.    62  3.69  3.19  20       1     0     4     2
 9 Merc 230     22.8     4  141.    95  3.92  3.15  22.9     1     0     4     2
10 Merc 280     19.2     6  168.   123  3.92  3.44  18.3     1     0     4     4
# ℹ 22 more rows
…
To illustrate how to use readr we will load a .csv file containing information about flights from 2014.

First we will download the data. You can download this data manually from github. Instead we will use R to download the dataset using the download.file() base R function.

if(!file.exists("flights14.csv")) {
  url <- "https://raw.githubusercontent.com/Rdatatable/data.table/master/vignettes/flights14.csv" 
  download.file(url, "flights14.csv")
}  

You should now have a file called “flights14.csv” in your working directory (the same directory as the Rmarkdown). To read this data into R, we can use the read_csv() function. The defaults for this function often work for many datasets.

flights <- read_csv("flights14.csv")
flights

# A tibble: 253,316 × 11
    year month   day dep_delay arr_delay carrier origin dest  air_time distance
   <dbl> <dbl> <dbl>     <dbl>     <dbl> <chr>   <chr>  <chr>    <dbl>    <dbl>
 1  2014     1     1        14        13 AA      JFK    LAX        359     2475
 2  2014     1     1        -3        13 AA      JFK    LAX        363     2475
 3  2014     1     1         2         9 AA      JFK    LAX        351     2475
 4  2014     1     1        -8       -26 AA      LGA    PBI        157     1035
 5  2014     1     1         2         1 AA      JFK    LAX        350     2475
 6  2014     1     1         4         0 AA      EWR    LAX        339     2454
 7  2014     1     1        -2       -18 AA      JFK    LAX        338     2475
 8  2014     1     1        -3       -14 AA      JFK    LAX        356     2475
 9  2014     1     1        -1       -17 AA      JFK    MIA        161     1089
10  2014     1     1        -2       -14 AA      JFK    SEA        349     2422
# ℹ 253,306 more rows
# ℹ 1 more variable: hour <dbl>
…
The readxl package can read data from excel files and is included in the tidyverse. The read_excel() function is the main function for reading data.

The openxlsx package, which is not part of tidyverse but is on CRAN, can write excel files. The write.xlsx() function is the main function for writing data to excel spreadsheets.

Data import/export of R objects

Often it is useful to store R objects as files on disk. These could be large processed datasets, intermediate results, or complex data structures that are not easily stored in rectangular text formats.

R provides the readRDS() and saveRDS() functions for storing data in binary formats.

saveRDS(flights, "flights.rds") # save single object into a file
df <- readRDS("flights.rds") # read object back into R
df

# A tibble: 253,316 × 11
    year month   day dep_delay arr_delay carrier origin dest  air_time distance
   <dbl> <dbl> <dbl>     <dbl>     <dbl> <chr>   <chr>  <chr>    <dbl>    <dbl>
 1  2014     1     1        14        13 AA      JFK    LAX        359     2475
 2  2014     1     1        -3        13 AA      JFK    LAX        363     2475
 3  2014     1     1         2         9 AA      JFK    LAX        351     2475
 4  2014     1     1        -8       -26 AA      LGA    PBI        157     1035
 5  2014     1     1         2         1 AA      JFK    LAX        350     2475
 6  2014     1     1         4         0 AA      EWR    LAX        339     2454
 7  2014     1     1        -2       -18 AA      JFK    LAX        338     2475
 8  2014     1     1        -3       -14 AA      JFK    LAX        356     2475
 9  2014     1     1        -1       -17 AA      JFK    MIA        161     1089
10  2014     1     1        -2       -14 AA      JFK    SEA        349     2422
# ℹ 253,306 more rows
# ℹ 1 more variable: hour <dbl>
…
- mutate() changes the values of columns and creates new columns

Groups of rows:

- summarise() collapses a group into a single row

Filter rows

Returning to our flights data. Let’s use filter() to select certain rows.

filter(tibble, conditional_expression, ...)

filter(flights, dest == "LAX") #select rows where the `dest` column is equal to `LAX

# A tibble: 14,434 × 11
    year month   day dep_delay arr_delay carrier origin dest  air_time distance
   <dbl> <dbl> <dbl>     <dbl>     <dbl> <chr>   <chr>  <chr>    <dbl>    <dbl>
 1  2014     1     1        14        13 AA      JFK    LAX        359     2475
 2  2014     1     1        -3        13 AA      JFK    LAX        363     2475
 3  2014     1     1         2         9 AA      JFK    LAX        351     2475
 4  2014     1     1         2         1 AA      JFK    LAX        350     2475
 5  2014     1     1         4         0 AA      EWR    LAX        339     2454
 6  2014     1     1        -2       -18 AA      JFK    LAX        338     2475
 7  2014     1     1        -3       -14 AA      JFK    LAX        356     2475
 8  2014     1     1       142       133 AA      JFK    LAX        345     2475
 9  2014     1     1        -4        11 B6      JFK    LAX        349     2475
10  2014     1     1         3       -10 B6      JFK    LAX        349     2475
# ℹ 14,424 more rows
# ℹ 1 more variable: hour <dbl>
…
filter(flights, dest == "LAX" | origin == "EWR")

The %in% operator is useful for identifying rows with entries matching those in a vector of possibilities.

filter(flights, dest %in% c("LAX", "SLC", "SFO"))
filter(flights, !dest %in% c("LAX", "SLC", "SFO")) # ! will negate

Try it out:

Use filter to find flights to DEN with a delayed departure (dep_delay).

filter(flights, dest == "DEN", dep_delay > 0)

# A tibble: 3,060 × 11
    year month   day dep_delay arr_delay carrier origin dest  air_time distance
   <dbl> <dbl> <dbl>     <dbl>     <dbl> <chr>   <chr>  <chr>    <dbl>    <dbl>
 1  2014     1     1        45        37 B6      JFK    DEN        237     1626
 2  2014     1     1         6       -13 DL      JFK    DEN        235     1626
 3  2014     1     1        13        16 DL      LGA    DEN        242     1620
 4  2014     1     1        35        47 F9      LGA    DEN        246     1620
 5  2014     1     1         2        19 WN      EWR    DEN        259     1605
 6  2014     1     1        17        60 WN      LGA    DEN        245     1620
 7  2014     1     1         3        12 WN      LGA    DEN        260     1620
 8  2014     1     1        10         3 UA      EWR    DEN        224     1605
 9  2014     1     1        46        43 UA      LGA    DEN        235     1620
10  2014     1     1        22         8 UA      EWR    DEN        237     1605
# ℹ 3,050 more rows
# ℹ 1 more variable: hour <dbl>

arrange rows

arrange() can be used to sort the data based on values in a single or multiple columns

arrange(tibble, <columns_to_sort_by>)

For example, let’s find the flight with the shortest amount of air time by arranging the table based on the air_time (flight time in minutes).

arrange(flights, air_time) 

# A tibble: 253,316 × 11
    year month   day dep_delay arr_delay carrier origin dest  air_time distance
   <dbl> <dbl> <dbl>     <dbl>     <dbl> <chr>   <chr>  <chr>    <dbl>    <dbl>
 1  2014     2    21        46        40 EV      EWR    BDL         20      116
 2  2014     6    20        -6        -2 US      LGA    BOS         20      184
 3  2014     1    16        -3       -12 EV      EWR    BDL         21      116
 4  2014     1    16        10        14 EV      EWR    BDL         21      116
 5  2014     2    19        19         0 EV      EWR    BDL         21      116
 6  2014     2    26        38        20 EV      EWR    BDL         21      116
 7  2014     3     4        17        -4 EV      EWR    BDL         21      116
 8  2014     6     5       105        93 EV      EWR    BDL         21      116
 9  2014     6     5        16         4 EV      EWR    BDL         21      116
10  2014     6    26        19        13 EV      EWR    BDL         21      116
# ℹ 253,306 more rows
# ℹ 1 more variable: hour <dbl>
…
Column operations

select columns

select() is a simple function that subsets the tibble to keep certain columns.

select(tibble, <columns_to_keep>)

select(flights, origin, dest)

# A tibble: 253,316 × 2
   origin dest 
   <chr>  <chr>
 1 JFK    LAX  
 2 JFK    LAX  
 3 JFK    LAX  
 4 LGA    PBI  
 5 JFK    LAX  
 6 EWR    LAX  
 7 JFK    LAX  
 8 JFK    LAX  
 9 JFK    MIA  
10 JFK    SEA  
# ℹ 253,306 more rows
…
When to quote or not quote?

In general, when working with the tidyverse, you don’t need to quote the names of columns. In the example above, we needed quotes because “delay” is not a column name in the flights tibble.

Adding new columns with mutate

mutate() allows you to add new columns to the tibble.

mutate(tibble, new_column_name = expression, ...)

mutate(flights, total_delay = dep_delay + arr_delay)

# A tibble: 253,316 × 12
    year month   day dep_delay arr_delay carrier origin dest  air_time distance
   <dbl> <dbl> <dbl>     <dbl>     <dbl> <chr>   <chr>  <chr>    <dbl>    <dbl>
 1  2014     1     1        14        13 AA      JFK    LAX        359     2475
 2  2014     1     1        -3        13 AA      JFK    LAX        363     2475
 3  2014     1     1         2         9 AA      JFK    LAX        351     2475
 4  2014     1     1        -8       -26 AA      LGA    PBI        157     1035
 5  2014     1     1         2         1 AA      JFK    LAX        350     2475
 6  2014     1     1         4         0 AA      EWR    LAX        339     2454
 7  2014     1     1        -2       -18 AA      JFK    LAX        338     2475
 8  2014     1     1        -3       -14 AA      JFK    LAX        356     2475
 9  2014     1     1        -1       -17 AA      JFK    MIA        161     1089
10  2014     1     1        -2       -14 AA      JFK    SEA        349     2422
# ℹ 253,306 more rows
# ℹ 2 more variables: hour <dbl>, total_delay <dbl>

We can’t see the new column, so we add a select command to examine the columns of interest.

mutate(flights, total_delay = dep_delay + arr_delay) |> 
  select(dep_delay, arr_delay, total_delay)

# A tibble: 253,316 × 3
   dep_delay arr_delay total_delay
       <dbl>     <dbl>       <dbl>
 1        14        13          27
 2        -3        13          10
 3         2         9          11
 4        -8       -26         -34
 5         2         1           3
 6         4         0           4
 7        -2       -18         -20
 8        -3       -14         -17
 9        -1       -17         -18
10        -2       -14         -16
# ℹ 253,306 more rows

Multiple new columns can be made, and you can refer to columns made in preceding statements.

mutate(flights, 
       total_delay = dep_delay + arr_delay,
       rank_delay = rank(total_delay)) |> 
  select(total_delay, rank_delay)

Try it out:

Calculate the flight time (air_time) in hours rather than in minutes, add as a new column.

mutate(flights, flight_time = air_time / 60)

# A tibble: 253,316 × 12
    year month   day dep_delay arr_delay carrier origin dest  air_time distance
   <dbl> <dbl> <dbl>     <dbl>     <dbl> <chr>   <chr>  <chr>    <dbl>    <dbl>
 1  2014     1     1        14        13 AA      JFK    LAX        359     2475
 2  2014     1     1        -3        13 AA      JFK    LAX        363     2475
 3  2014     1     1         2         9 AA      JFK    LAX        351     2475
 4  2014     1     1        -8       -26 AA      LGA    PBI        157     1035
 5  2014     1     1         2         1 AA      JFK    LAX        350     2475
 6  2014     1     1         4         0 AA      EWR    LAX        339     2454
 7  2014     1     1        -2       -18 AA      JFK    LAX        338     2475
 8  2014     1     1        -3       -14 AA      JFK    LAX        356     2475
 9  2014     1     1        -1       -17 AA      JFK    MIA        161     1089
10  2014     1     1        -2       -14 AA      JFK    SEA        349     2422
# ℹ 253,306 more rows
# ℹ 2 more variables: hour <dbl>, flight_time <dbl>
…
# calculate # of flights between each origin and destination city, per carrier, and average air time.
 # n() is a special function that returns the # of rows per group
group_by(flights, carrier, origin, dest) |>
  summarize(n_flights = n(),
            mean_air_time = mean(air_time))  

Here are some questions that we can answer using grouped operations in a few lines of dplyr code. Use pipes.

What is the average flight air_time between each origin airport and destination airport?

group_by(flights, origin, dest) |> 
  summarize(avg_air_time = mean(air_time))

# A tibble: 221 × 3
# Groups:   origin [3]
   origin dest  avg_air_time
   <chr>  <chr>        <dbl>
 1 EWR    ALB           31.4
 2 EWR    ANC          424. 
 3 EWR    ATL          111. 
 4 EWR    AUS          210. 
 5 EWR    AVL           89.7
 6 EWR    AVP           25  
 7 EWR    BDL           25.4
 8 EWR    BNA          115. 
 9 EWR    BOS           40.1
10 EWR    BQN          197. 
# ℹ 211 more rows
…
# A tibble: 4 × 1
  dest 
  <chr>
1 HOU  
2 HNL  
3 HDN  
4 HYA  

Let’s make a new column that combines the origin and dest columns.

mutate(flights, new_col = str_c(origin, ":", dest)) |> 
  select(new_col, everything())

# A tibble: 253,316 × 12
   new_col  year month   day dep_delay arr_delay carrier origin dest  air_time
   <chr>   <dbl> <dbl> <dbl>     <dbl>     <dbl> <chr>   <chr>  <chr>    <dbl>
 1 JFK:LAX  2014     1     1        14        13 AA      JFK    LAX        359
 2 JFK:LAX  2014     1     1        -3        13 AA      JFK    LAX        363
 3 JFK:LAX  2014     1     1         2         9 AA      JFK    LAX        351
 4 LGA:PBI  2014     1     1        -8       -26 AA      LGA    PBI        157
 5 JFK:LAX  2014     1     1         2         1 AA      JFK    LAX        350
 6 EWR:LAX  2014     1     1         4         0 AA      EWR    LAX        339
 7 JFK:LAX  2014     1     1        -2       -18 AA      JFK    LAX        338
 8 JFK:LAX  2014     1     1        -3       -14 AA      JFK    LAX        356
 9 JFK:MIA  2014     1     1        -1       -17 AA      JFK    MIA        161
10 JFK:SEA  2014     1     1        -2       -14 AA      JFK    SEA        349
# ℹ 253,306 more rows
# ℹ 2 more variables: distance <dbl>, hour <dbl>
…
