…
### Question 6 

This data is not in a tidy format. Why is it not tidy?

...

### Question 7

Tidy the dataframe so that each row has only one experimental observation. Save the dataframe to a new object. Hint: Use _pivot_longer_ and _separate_. Also note that this may take a few moments (~ < 1 min) to run. It might be helpful to troubleshoot your code on a small data.frame first (e.g `tmp_df <- df[1:100, ]`).

Your tidy data.frame should look like this (the column names may differ):

```r
# A tibble: 3,312,280 × 4
   Proteins    stage    replicate intensity
   <chr>       <chr>     <chr>         <dbl>
 1 FBtr0074299 e02       1                 0
 2 FBtr0074299 e02       2                 0
 3 FBtr0074299 e02       3                 0
 4 FBtr0074299 e02       4                 0
 5 FBtr0074299 e06       1                 0
 6 FBtr0074299 e06       2                 0
 7 FBtr0074299 e06       3                 0
 8 FBtr0074299 e06       4                 0
 9 FBtr0074299 e12       1                 0
10 FBtr0074299 e12       2                 0
# … with 3,312,270 more rows
# ℹ Use `print(n = ...)` to see more rows
```
…
